{
  "candidates": [
    {
      "_id": 1,
      "first_name": "Laurentiu",
      "last_name": "Ghiur",
      "current_application": {
        "stages": [
          {
            "employee_id": 1,
            "grade": "Junior"
          },
          {
            "employee_id": 2,
            "grade": "Junior"
          },
          {
            "employee_id": 3,
            "grade": "Junior"
          }
        ]
      }
    },
    {
      "_id": 2,
      "first_name": "Razvan",
      "last_name": "Antalut",
      "current_application": {
        "stages": [
          {
            "employee_id": 1,
            "grade": "Junior"
          },
          {
            "employee_id": 2,
            "grade": "Junior"
          },
          {
            "employee_id": 3,
            "grade": "Junior"
          }
        ]
      }
    },
    {
      "_id": 3,
      "first_name": "Doru",
      "last_name": "Ambroze",
      "current_application": {
        "stages": [
          {
            "employee_id": 1
          },
          {
            "employee_id": 2
          },
          {
            "employee_id": 3
          }
        ]
      }
    },
    {
      "_id": 4,
      "first_name": "Catalin",
      "last_name": "Bogdan",
      "current_application": {
        "stages": [
          {
            "employee_id": 1
          },
          {
            "employee_id": 2
          },
          {
            "employee_id": 3
          }
        ]
      }
    },
    {
      "_id": 5,
      "first_name": "Andrei",
      "last_name": "Dragos",
      "current_application": {
        "stages": [
          {
            "employee_id": 1
          },
          {
            "employee_id": 2
          },
          {
            "employee_id": 3
          }
        ]
      }
    }
  ]
}
